%YAML 1.1
%TAG !u! tag:unity3d.com,2011:
--- !u!78 &1
TagManager:
  serializedVersion: 2
  tags:
  - Piece
  - Square
  layers:
  - Default
  - TransparentFX
  - Ignore Raycast
  - 
  - Water
  - UI
  - 
  - Square
  - Pieces
  - 
  - 
  - 
  - 
  - 
  - 
  - 
  - 
  - 
  - 
  - 
  - 
  - 
  - 
  - 
  - 
  - 
  - 
  - 
  - 
  - 
  - 
  - 
  m_SortingLayers:
  - name: Default
    uniqueID: 0
    locked: 0
  - name: Board
    uniqueID: 4203889059
    locked: 0
  - name: SquareHighlights
    uniqueID: 1928284691
    locked: 0
  - name: Pieces
    uniqueID: 2527397501
    locked: 0
  - name: ChessClock
    uniqueID: 3931198187
    locked: 0
