%YAML 1.1
%TAG !u! tag:unity3d.com,2011:
--- !u!1001 &5982858424701311677
PrefabInstance:
  m_ObjectHideFlags: 0
  serializedVersion: 2
  m_Modification:
    m_TransformParent: {fileID: 0}
    m_Modifications:
    - target: {fileID: -4237094108455383124, guid: 2c89176a58ad6594b91220cfcc71ee59,
        type: 3}
      propertyPath: m_Size.x
      value: 0.12
      objectReference: {fileID: 0}
    - target: {fileID: -4237094108455383124, guid: 2c89176a58ad6594b91220cfcc71ee59,
        type: 3}
      propertyPath: m_Size.y
      value: 0.27
      objectReference: {fileID: 0}
    - target: {fileID: -4237094108455383124, guid: 2c89176a58ad6594b91220cfcc71ee59,
        type: 3}
      propertyPath: m_SpriteTilingProperty.pivot.x
      value: 0.5
      objectReference: {fileID: 0}
    - target: {fileID: -4237094108455383124, guid: 2c89176a58ad6594b91220cfcc71ee59,
        type: 3}
      propertyPath: m_SpriteTilingProperty.pivot.y
      value: 0.5
      objectReference: {fileID: 0}
    - target: {fileID: -4237094108455383124, guid: 2c89176a58ad6594b91220cfcc71ee59,
        type: 3}
      propertyPath: m_SpriteTilingProperty.newSize.x
      value: 0.14
      objectReference: {fileID: 0}
    - target: {fileID: -4237094108455383124, guid: 2c89176a58ad6594b91220cfcc71ee59,
        type: 3}
      propertyPath: m_SpriteTilingProperty.newSize.y
      value: 0.27
      objectReference: {fileID: 0}
    - target: {fileID: -4237094108455383124, guid: 2c89176a58ad6594b91220cfcc71ee59,
        type: 3}
      propertyPath: m_SpriteTilingProperty.oldSize.x
      value: 0.14
      objectReference: {fileID: 0}
    - target: {fileID: -4237094108455383124, guid: 2c89176a58ad6594b91220cfcc71ee59,
        type: 3}
      propertyPath: m_SpriteTilingProperty.oldSize.y
      value: 0.3
      objectReference: {fileID: 0}
    - target: {fileID: -4237094108455383124, guid: 2c89176a58ad6594b91220cfcc71ee59,
        type: 3}
      propertyPath: m_SpriteTilingProperty.adaptiveTilingThreshold
      value: 0.5
      objectReference: {fileID: 0}
    - target: {fileID: 193318194677307967, guid: 2c89176a58ad6594b91220cfcc71ee59,
        type: 3}
      propertyPath: type
      value: 1
      objectReference: {fileID: 0}
    - target: {fileID: 2241031520304584328, guid: 2c89176a58ad6594b91220cfcc71ee59,
        type: 3}
      propertyPath: m_Size.y
      value: 0.27
      objectReference: {fileID: 0}
    - target: {fileID: 2241031520304584328, guid: 2c89176a58ad6594b91220cfcc71ee59,
        type: 3}
      propertyPath: m_Sprite
      value: 
      objectReference: {fileID: -7288792907855389276, guid: 8877cf32d3e800540b8fd54ef402b9e9,
        type: 3}
    - target: {fileID: 2241031520304584328, guid: 2c89176a58ad6594b91220cfcc71ee59,
        type: 3}
      propertyPath: m_WasSpriteAssigned
      value: 1
      objectReference: {fileID: 0}
    - target: {fileID: 2241031520304584329, guid: 2c89176a58ad6594b91220cfcc71ee59,
        type: 3}
      propertyPath: m_RootOrder
      value: 0
      objectReference: {fileID: 0}
    - target: {fileID: 2241031520304584329, guid: 2c89176a58ad6594b91220cfcc71ee59,
        type: 3}
      propertyPath: m_LocalPosition.x
      value: 0
      objectReference: {fileID: 0}
    - target: {fileID: 2241031520304584329, guid: 2c89176a58ad6594b91220cfcc71ee59,
        type: 3}
      propertyPath: m_LocalPosition.y
      value: 0
      objectReference: {fileID: 0}
    - target: {fileID: 2241031520304584329, guid: 2c89176a58ad6594b91220cfcc71ee59,
        type: 3}
      propertyPath: m_LocalPosition.z
      value: 0
      objectReference: {fileID: 0}
    - target: {fileID: 2241031520304584329, guid: 2c89176a58ad6594b91220cfcc71ee59,
        type: 3}
      propertyPath: m_LocalRotation.w
      value: 1
      objectReference: {fileID: 0}
    - target: {fileID: 2241031520304584329, guid: 2c89176a58ad6594b91220cfcc71ee59,
        type: 3}
      propertyPath: m_LocalRotation.x
      value: 0
      objectReference: {fileID: 0}
    - target: {fileID: 2241031520304584329, guid: 2c89176a58ad6594b91220cfcc71ee59,
        type: 3}
      propertyPath: m_LocalRotation.y
      value: 0
      objectReference: {fileID: 0}
    - target: {fileID: 2241031520304584329, guid: 2c89176a58ad6594b91220cfcc71ee59,
        type: 3}
      propertyPath: m_LocalRotation.z
      value: 0
      objectReference: {fileID: 0}
    - target: {fileID: 2241031520304584329, guid: 2c89176a58ad6594b91220cfcc71ee59,
        type: 3}
      propertyPath: m_LocalEulerAnglesHint.x
      value: 0
      objectReference: {fileID: 0}
    - target: {fileID: 2241031520304584329, guid: 2c89176a58ad6594b91220cfcc71ee59,
        type: 3}
      propertyPath: m_LocalEulerAnglesHint.y
      value: 0
      objectReference: {fileID: 0}
    - target: {fileID: 2241031520304584329, guid: 2c89176a58ad6594b91220cfcc71ee59,
        type: 3}
      propertyPath: m_LocalEulerAnglesHint.z
      value: 0
      objectReference: {fileID: 0}
    - target: {fileID: 2241031520304584331, guid: 2c89176a58ad6594b91220cfcc71ee59,
        type: 3}
      propertyPath: m_Name
      value: Queen
      objectReference: {fileID: 0}
    - target: {fileID: 3227582132091371654, guid: 2c89176a58ad6594b91220cfcc71ee59,
        type: 3}
      propertyPath: type
      value: 1
      objectReference: {fileID: 0}
    m_RemovedComponents: []
  m_SourcePrefab: {fileID: 100100000, guid: 2c89176a58ad6594b91220cfcc71ee59, type: 3}
